{"failedCount":1,"prefixedPath":"src\/main\/java\/users\/get\/users-get.feature","packageQualifiedName":"src.main.java.users.get.users-get","loopIndex":-1,"relativePath":"src\/main\/java\/users\/get\/users-get.feature","scenarioResults":[{"sectionIndex":1,"stepResults":[{"result":{"nanos":52532400,"millis":52.5324,"status":"passed"},"step":{"line":8,"prefix":"Given","index":0,"text":"url \"https:\/\/reqres.in\/api\/users?page=1\""}},{"result":{"nanos":1155986600,"millis":1155.9866,"status":"passed"},"step":{"line":9,"prefix":"When","index":1,"text":"method get"},"stepLog":"11:35:12.410 request:\n1 > GET https:\/\/reqres.in\/api\/users?page=1\n1 > Host: reqres.in\n1 > Connection: Keep-Alive\n1 > User-Agent: Apache-HttpClient\/4.5.13 (Java\/1.8.0_131)\n1 > Accept-Encoding: gzip,deflate\n\n\n11:35:13.053 response time in milliseconds: 641\n1 < 200\n1 < Date: Fri, 13 May 2022 16:34:21 GMT\n1 < Content-Type: application\/json; charset=utf-8\n1 < Transfer-Encoding: chunked\n1 < Connection: keep-alive\n1 < X-Powered-By: Express\n1 < Access-Control-Allow-Origin: *\n1 < Etag: W\/\"3e4-2RLXvr5wTg9YQ6aH95CkYoFNuO8\"\n1 < Via: 1.1 vegur\n1 < Cache-Control: max-age=14400\n1 < CF-Cache-Status: REVALIDATED\n1 < Expect-CT: max-age=604800, report-uri=\"https:\/\/report-uri.cloudflare.com\/cdn-cgi\/beacon\/expect-ct\"\n1 < Report-To: {\"endpoints\":[{\"url\":\"https:\\\/\\\/a.nel.cloudflare.com\\\/report\\\/v3?s=365PIQZ5jY679DZ8ouxLSI3eHkuxGMdsvAfNLVjnecJgnxMt%2FZgVDGWV8TnIKS56xvkg5sC%2Bhx6v8rUW8nRzxcI7StKxoe2Vh0m%2BvvzzLFfZhZL5gXUurSSZYXg%3D\"}],\"group\":\"cf-nel\",\"max_age\":604800}\n1 < NEL: {\"success_fraction\":0,\"report_to\":\"cf-nel\",\"max_age\":604800}\n1 < Vary: Accept-Encoding\n1 < Server: cloudflare\n1 < CF-RAY: 70accd14887d9abd-MIA\n1 < alt-svc: h3=\":443\"; ma=86400, h3-29=\":443\"; ma=86400\n{\"page\":1,\"per_page\":6,\"total\":12,\"total_pages\":2,\"data\":[{\"id\":1,\"email\":\"george.bluth@reqres.in\",\"first_name\":\"George\",\"last_name\":\"Bluth\",\"avatar\":\"https:\/\/reqres.in\/img\/faces\/1-image.jpg\"},{\"id\":2,\"email\":\"janet.weaver@reqres.in\",\"first_name\":\"Janet\",\"last_name\":\"Weaver\",\"avatar\":\"https:\/\/reqres.in\/img\/faces\/2-image.jpg\"},{\"id\":3,\"email\":\"emma.wong@reqres.in\",\"first_name\":\"Emma\",\"last_name\":\"Wong\",\"avatar\":\"https:\/\/reqres.in\/img\/faces\/3-image.jpg\"},{\"id\":4,\"email\":\"eve.holt@reqres.in\",\"first_name\":\"Eve\",\"last_name\":\"Holt\",\"avatar\":\"https:\/\/reqres.in\/img\/faces\/4-image.jpg\"},{\"id\":5,\"email\":\"charles.morris@reqres.in\",\"first_name\":\"Charles\",\"last_name\":\"Morris\",\"avatar\":\"https:\/\/reqres.in\/img\/faces\/5-image.jpg\"},{\"id\":6,\"email\":\"tracey.ramos@reqres.in\",\"first_name\":\"Tracey\",\"last_name\":\"Ramos\",\"avatar\":\"https:\/\/reqres.in\/img\/faces\/6-image.jpg\"}],\"support\":{\"url\":\"https:\/\/reqres.in\/#support-heading\",\"text\":\"To keep ReqRes free, contributions towards server costs are appreciated!\"}}\n\n"},{"result":{"nanos":13500,"millis":0.0135,"status":"passed"},"step":{"line":10,"prefix":"Then","index":2,"text":"status 200"}},{"result":{"nanos":28708200,"errorMessage":"match failed: EQUALS\n  $ | not equal | match failed for name: 'data' (MAP:MAP)\n  {\"page\":1,\"per_page\":6,\"total\":12,\"total_pages\":2,\"data\":[{\"id\":1,\"email\":\"george.bluth@reqres.in\",\"first_name\":\"George\",\"last_name\":\"Bluth\",\"avatar\":\"https:\/\/reqres.in\/img\/faces\/1-image.jpg\"},{\"id\":2,\"email\":\"janet.weaver@reqres.in\",\"first_name\":\"Janet\",\"last_name\":\"Weaver\",\"avatar\":\"https:\/\/reqres.in\/img\/faces\/2-image.jpg\"},{\"id\":3,\"email\":\"emma.wong@reqres.in\",\"first_name\":\"Emma\",\"last_name\":\"Wong\",\"avatar\":\"https:\/\/reqres.in\/img\/faces\/3-image.jpg\"},{\"id\":4,\"email\":\"eve.holt@reqres.in\",\"first_name\":\"Eve\",\"last_name\":\"Holt\",\"avatar\":\"https:\/\/reqres.in\/img\/faces\/4-image.jpg\"},{\"id\":5,\"email\":\"charles.morris@reqres.in\",\"first_name\":\"Charles\",\"last_name\":\"Morris\",\"avatar\":\"https:\/\/reqres.in\/img\/faces\/5-image.jpg\"},{\"id\":6,\"email\":\"tracey.ramos@reqres.in\",\"first_name\":\"Tracey\",\"last_name\":\"Ramos\",\"avatar\":\"https:\/\/reqres.in\/img\/faces\/6-image.jpg\"}],\"support\":{\"url\":\"https:\/\/reqres.in\/#support-heading\",\"text\":\"To keep ReqRes free, contributions towards server costs are appreciated!\"}}\n  {\"page\":1,\"per_page\":6,\"total\":12,\"total_pages\":2,\"data\":[{\"id\":7,\"email\":\"michael.lawson@reqres.in\",\"first_name\":\"Michael\",\"last_name\":\"Lawson\",\"avatar\":\"https:\/\/reqres.in\/img\/faces\/7-image.jpg\"},{\"id\":8,\"email\":\"lindsay.ferguson@reqres.in\",\"first_name\":\"Lindsay\",\"last_name\":\"Ferguson\",\"avatar\":\"https:\/\/reqres.in\/img\/faces\/8-image.jpg\"},{\"id\":9,\"email\":\"tobias.funke@reqres.in\",\"first_name\":\"Tobias\",\"last_name\":\"Funke\",\"avatar\":\"https:\/\/reqres.in\/img\/faces\/9-image.jpg\"},{\"id\":10,\"email\":\"byron.fields@reqres.in\",\"first_name\":\"Byron\",\"last_name\":\"Fields\",\"avatar\":\"https:\/\/reqres.in\/img\/faces\/10-image.jpg\"},{\"id\":11,\"email\":\"george.edwards@reqres.in\",\"first_name\":\"George\",\"last_name\":\"Edwards\",\"avatar\":\"https:\/\/reqres.in\/img\/faces\/11-image.jpg\"},{\"id\":12,\"email\":\"rachel.howell@reqres.in\",\"first_name\":\"Rachel\",\"last_name\":\"Howell\",\"avatar\":\"https:\/\/reqres.in\/img\/faces\/12-image.jpg\"}],\"support\":{\"url\":\"https:\/\/reqres.in\/#support-heading\",\"text\":\"To keep ReqRes free, contributions towards server costs are appreciated!\"}}\n\n    $.data | not equal | array match failed at index 0 (LIST:LIST)\n    [{\"id\":1,\"email\":\"george.bluth@reqres.in\",\"first_name\":\"George\",\"last_name\":\"Bluth\",\"avatar\":\"https:\/\/reqres.in\/img\/faces\/1-image.jpg\"},{\"id\":2,\"email\":\"janet.weaver@reqres.in\",\"first_name\":\"Janet\",\"last_name\":\"Weaver\",\"avatar\":\"https:\/\/reqres.in\/img\/faces\/2-image.jpg\"},{\"id\":3,\"email\":\"emma.wong@reqres.in\",\"first_name\":\"Emma\",\"last_name\":\"Wong\",\"avatar\":\"https:\/\/reqres.in\/img\/faces\/3-image.jpg\"},{\"id\":4,\"email\":\"eve.holt@reqres.in\",\"first_name\":\"Eve\",\"last_name\":\"Holt\",\"avatar\":\"https:\/\/reqres.in\/img\/faces\/4-image.jpg\"},{\"id\":5,\"email\":\"charles.morris@reqres.in\",\"first_name\":\"Charles\",\"last_name\":\"Morris\",\"avatar\":\"https:\/\/reqres.in\/img\/faces\/5-image.jpg\"},{\"id\":6,\"email\":\"tracey.ramos@reqres.in\",\"first_name\":\"Tracey\",\"last_name\":\"Ramos\",\"avatar\":\"https:\/\/reqres.in\/img\/faces\/6-image.jpg\"}]\n    [{\"id\":7,\"email\":\"michael.lawson@reqres.in\",\"first_name\":\"Michael\",\"last_name\":\"Lawson\",\"avatar\":\"https:\/\/reqres.in\/img\/faces\/7-image.jpg\"},{\"id\":8,\"email\":\"lindsay.ferguson@reqres.in\",\"first_name\":\"Lindsay\",\"last_name\":\"Ferguson\",\"avatar\":\"https:\/\/reqres.in\/img\/faces\/8-image.jpg\"},{\"id\":9,\"email\":\"tobias.funke@reqres.in\",\"first_name\":\"Tobias\",\"last_name\":\"Funke\",\"avatar\":\"https:\/\/reqres.in\/img\/faces\/9-image.jpg\"},{\"id\":10,\"email\":\"byron.fields@reqres.in\",\"first_name\":\"Byron\",\"last_name\":\"Fields\",\"avatar\":\"https:\/\/reqres.in\/img\/faces\/10-image.jpg\"},{\"id\":11,\"email\":\"george.edwards@reqres.in\",\"first_name\":\"George\",\"last_name\":\"Edwards\",\"avatar\":\"https:\/\/reqres.in\/img\/faces\/11-image.jpg\"},{\"id\":12,\"email\":\"rachel.howell@reqres.in\",\"first_name\":\"Rachel\",\"last_name\":\"Howell\",\"avatar\":\"https:\/\/reqres.in\/img\/faces\/12-image.jpg\"}]\n\n      $.data[0] | not equal | match failed for name: 'id' (MAP:MAP)\n      {\"id\":1,\"email\":\"george.bluth@reqres.in\",\"first_name\":\"George\",\"last_name\":\"Bluth\",\"avatar\":\"https:\/\/reqres.in\/img\/faces\/1-image.jpg\"}\n      {\"id\":7,\"email\":\"michael.lawson@reqres.in\",\"first_name\":\"Michael\",\"last_name\":\"Lawson\",\"avatar\":\"https:\/\/reqres.in\/img\/faces\/7-image.jpg\"}\n\n        $.data[0].id | not equal (NUMBER:NUMBER)\n        1\n        7\n\nsrc\/main\/java\/users\/get\/users-get.feature:11","millis":28.7082,"status":"failed"},"step":{"line":11,"prefix":"And","index":3,"text":"match $ == {\"page\":1,\"per_page\":6,\"total\":12,\"total_pages\":2,\"data\":[{\"id\":7,\"email\":\"michael.lawson@reqres.in\",\"first_name\":\"Michael\",\"last_name\":\"Lawson\",\"avatar\":\"https:\/\/reqres.in\/img\/faces\/7-image.jpg\"},{\"id\":8,\"email\":\"lindsay.ferguson@reqres.in\",\"first_name\":\"Lindsay\",\"last_name\":\"Ferguson\",\"avatar\":\"https:\/\/reqres.in\/img\/faces\/8-image.jpg\"},{\"id\":9,\"email\":\"tobias.funke@reqres.in\",\"first_name\":\"Tobias\",\"last_name\":\"Funke\",\"avatar\":\"https:\/\/reqres.in\/img\/faces\/9-image.jpg\"},{\"id\":10,\"email\":\"byron.fields@reqres.in\",\"first_name\":\"Byron\",\"last_name\":\"Fields\",\"avatar\":\"https:\/\/reqres.in\/img\/faces\/10-image.jpg\"},{\"id\":11,\"email\":\"george.edwards@reqres.in\",\"first_name\":\"George\",\"last_name\":\"Edwards\",\"avatar\":\"https:\/\/reqres.in\/img\/faces\/11-image.jpg\"},{\"id\":12,\"email\":\"rachel.howell@reqres.in\",\"first_name\":\"Rachel\",\"last_name\":\"Howell\",\"avatar\":\"https:\/\/reqres.in\/img\/faces\/12-image.jpg\"}],\"support\":{\"url\":\"https:\/\/reqres.in\/#support-heading\",\"text\":\"To keep ReqRes free, contributions towards server costs are appreciated!\"}}"},"stepLog":"11:35:13.101 src\/main\/java\/users\/get\/users-get.feature:11\nAnd match $ == {\"page\":1,\"per_page\":6,\"total\":12,\"total_pages\":2,\"data\":[{\"id\":7,\"email\":\"michael.lawson@reqres.in\",\"first_name\":\"Michael\",\"last_name\":\"Lawson\",\"avatar\":\"https:\/\/reqres.in\/img\/faces\/7-image.jpg\"},{\"id\":8,\"email\":\"lindsay.ferguson@reqres.in\",\"first_name\":\"Lindsay\",\"last_name\":\"Ferguson\",\"avatar\":\"https:\/\/reqres.in\/img\/faces\/8-image.jpg\"},{\"id\":9,\"email\":\"tobias.funke@reqres.in\",\"first_name\":\"Tobias\",\"last_name\":\"Funke\",\"avatar\":\"https:\/\/reqres.in\/img\/faces\/9-image.jpg\"},{\"id\":10,\"email\":\"byron.fields@reqres.in\",\"first_name\":\"Byron\",\"last_name\":\"Fields\",\"avatar\":\"https:\/\/reqres.in\/img\/faces\/10-image.jpg\"},{\"id\":11,\"email\":\"george.edwards@reqres.in\",\"first_name\":\"George\",\"last_name\":\"Edwards\",\"avatar\":\"https:\/\/reqres.in\/img\/faces\/11-image.jpg\"},{\"id\":12,\"email\":\"rachel.howell@reqres.in\",\"first_name\":\"Rachel\",\"last_name\":\"Howell\",\"avatar\":\"https:\/\/reqres.in\/img\/faces\/12-image.jpg\"}],\"support\":{\"url\":\"https:\/\/reqres.in\/#support-heading\",\"text\":\"To keep ReqRes free, contributions towards server costs are appreciated!\"}}\nmatch failed: EQUALS\n  $ | not equal | match failed for name: 'data' (MAP:MAP)\n  {\"page\":1,\"per_page\":6,\"total\":12,\"total_pages\":2,\"data\":[{\"id\":1,\"email\":\"george.bluth@reqres.in\",\"first_name\":\"George\",\"last_name\":\"Bluth\",\"avatar\":\"https:\/\/reqres.in\/img\/faces\/1-image.jpg\"},{\"id\":2,\"email\":\"janet.weaver@reqres.in\",\"first_name\":\"Janet\",\"last_name\":\"Weaver\",\"avatar\":\"https:\/\/reqres.in\/img\/faces\/2-image.jpg\"},{\"id\":3,\"email\":\"emma.wong@reqres.in\",\"first_name\":\"Emma\",\"last_name\":\"Wong\",\"avatar\":\"https:\/\/reqres.in\/img\/faces\/3-image.jpg\"},{\"id\":4,\"email\":\"eve.holt@reqres.in\",\"first_name\":\"Eve\",\"last_name\":\"Holt\",\"avatar\":\"https:\/\/reqres.in\/img\/faces\/4-image.jpg\"},{\"id\":5,\"email\":\"charles.morris@reqres.in\",\"first_name\":\"Charles\",\"last_name\":\"Morris\",\"avatar\":\"https:\/\/reqres.in\/img\/faces\/5-image.jpg\"},{\"id\":6,\"email\":\"tracey.ramos@reqres.in\",\"first_name\":\"Tracey\",\"last_name\":\"Ramos\",\"avatar\":\"https:\/\/reqres.in\/img\/faces\/6-image.jpg\"}],\"support\":{\"url\":\"https:\/\/reqres.in\/#support-heading\",\"text\":\"To keep ReqRes free, contributions towards server costs are appreciated!\"}}\n  {\"page\":1,\"per_page\":6,\"total\":12,\"total_pages\":2,\"data\":[{\"id\":7,\"email\":\"michael.lawson@reqres.in\",\"first_name\":\"Michael\",\"last_name\":\"Lawson\",\"avatar\":\"https:\/\/reqres.in\/img\/faces\/7-image.jpg\"},{\"id\":8,\"email\":\"lindsay.ferguson@reqres.in\",\"first_name\":\"Lindsay\",\"last_name\":\"Ferguson\",\"avatar\":\"https:\/\/reqres.in\/img\/faces\/8-image.jpg\"},{\"id\":9,\"email\":\"tobias.funke@reqres.in\",\"first_name\":\"Tobias\",\"last_name\":\"Funke\",\"avatar\":\"https:\/\/reqres.in\/img\/faces\/9-image.jpg\"},{\"id\":10,\"email\":\"byron.fields@reqres.in\",\"first_name\":\"Byron\",\"last_name\":\"Fields\",\"avatar\":\"https:\/\/reqres.in\/img\/faces\/10-image.jpg\"},{\"id\":11,\"email\":\"george.edwards@reqres.in\",\"first_name\":\"George\",\"last_name\":\"Edwards\",\"avatar\":\"https:\/\/reqres.in\/img\/faces\/11-image.jpg\"},{\"id\":12,\"email\":\"rachel.howell@reqres.in\",\"first_name\":\"Rachel\",\"last_name\":\"Howell\",\"avatar\":\"https:\/\/reqres.in\/img\/faces\/12-image.jpg\"}],\"support\":{\"url\":\"https:\/\/reqres.in\/#support-heading\",\"text\":\"To keep ReqRes free, contributions towards server costs are appreciated!\"}}\n\n    $.data | not equal | array match failed at index 0 (LIST:LIST)\n    [{\"id\":1,\"email\":\"george.bluth@reqres.in\",\"first_name\":\"George\",\"last_name\":\"Bluth\",\"avatar\":\"https:\/\/reqres.in\/img\/faces\/1-image.jpg\"},{\"id\":2,\"email\":\"janet.weaver@reqres.in\",\"first_name\":\"Janet\",\"last_name\":\"Weaver\",\"avatar\":\"https:\/\/reqres.in\/img\/faces\/2-image.jpg\"},{\"id\":3,\"email\":\"emma.wong@reqres.in\",\"first_name\":\"Emma\",\"last_name\":\"Wong\",\"avatar\":\"https:\/\/reqres.in\/img\/faces\/3-image.jpg\"},{\"id\":4,\"email\":\"eve.holt@reqres.in\",\"first_name\":\"Eve\",\"last_name\":\"Holt\",\"avatar\":\"https:\/\/reqres.in\/img\/faces\/4-image.jpg\"},{\"id\":5,\"email\":\"charles.morris@reqres.in\",\"first_name\":\"Charles\",\"last_name\":\"Morris\",\"avatar\":\"https:\/\/reqres.in\/img\/faces\/5-image.jpg\"},{\"id\":6,\"email\":\"tracey.ramos@reqres.in\",\"first_name\":\"Tracey\",\"last_name\":\"Ramos\",\"avatar\":\"https:\/\/reqres.in\/img\/faces\/6-image.jpg\"}]\n    [{\"id\":7,\"email\":\"michael.lawson@reqres.in\",\"first_name\":\"Michael\",\"last_name\":\"Lawson\",\"avatar\":\"https:\/\/reqres.in\/img\/faces\/7-image.jpg\"},{\"id\":8,\"email\":\"lindsay.ferguson@reqres.in\",\"first_name\":\"Lindsay\",\"last_name\":\"Ferguson\",\"avatar\":\"https:\/\/reqres.in\/img\/faces\/8-image.jpg\"},{\"id\":9,\"email\":\"tobias.funke@reqres.in\",\"first_name\":\"Tobias\",\"last_name\":\"Funke\",\"avatar\":\"https:\/\/reqres.in\/img\/faces\/9-image.jpg\"},{\"id\":10,\"email\":\"byron.fields@reqres.in\",\"first_name\":\"Byron\",\"last_name\":\"Fields\",\"avatar\":\"https:\/\/reqres.in\/img\/faces\/10-image.jpg\"},{\"id\":11,\"email\":\"george.edwards@reqres.in\",\"first_name\":\"George\",\"last_name\":\"Edwards\",\"avatar\":\"https:\/\/reqres.in\/img\/faces\/11-image.jpg\"},{\"id\":12,\"email\":\"rachel.howell@reqres.in\",\"first_name\":\"Rachel\",\"last_name\":\"Howell\",\"avatar\":\"https:\/\/reqres.in\/img\/faces\/12-image.jpg\"}]\n\n      $.data[0] | not equal | match failed for name: 'id' (MAP:MAP)\n      {\"id\":1,\"email\":\"george.bluth@reqres.in\",\"first_name\":\"George\",\"last_name\":\"Bluth\",\"avatar\":\"https:\/\/reqres.in\/img\/faces\/1-image.jpg\"}\n      {\"id\":7,\"email\":\"michael.lawson@reqres.in\",\"first_name\":\"Michael\",\"last_name\":\"Lawson\",\"avatar\":\"https:\/\/reqres.in\/img\/faces\/7-image.jpg\"}\n\n        $.data[0].id | not equal (NUMBER:NUMBER)\n        1\n        7\n\nsrc\/main\/java\/users\/get\/users-get.feature:11\n"}],"line":7,"description":"","durationMillis":1237.2407,"failed":true,"error":"match failed: EQUALS\n  $ | not equal | match failed for name: 'data' (MAP:MAP)\n  {\"page\":1,\"per_page\":6,\"total\":12,\"total_pages\":2,\"data\":[{\"id\":1,\"email\":\"george.bluth@reqres.in\",\"first_name\":\"George\",\"last_name\":\"Bluth\",\"avatar\":\"https:\/\/reqres.in\/img\/faces\/1-image.jpg\"},{\"id\":2,\"email\":\"janet.weaver@reqres.in\",\"first_name\":\"Janet\",\"last_name\":\"Weaver\",\"avatar\":\"https:\/\/reqres.in\/img\/faces\/2-image.jpg\"},{\"id\":3,\"email\":\"emma.wong@reqres.in\",\"first_name\":\"Emma\",\"last_name\":\"Wong\",\"avatar\":\"https:\/\/reqres.in\/img\/faces\/3-image.jpg\"},{\"id\":4,\"email\":\"eve.holt@reqres.in\",\"first_name\":\"Eve\",\"last_name\":\"Holt\",\"avatar\":\"https:\/\/reqres.in\/img\/faces\/4-image.jpg\"},{\"id\":5,\"email\":\"charles.morris@reqres.in\",\"first_name\":\"Charles\",\"last_name\":\"Morris\",\"avatar\":\"https:\/\/reqres.in\/img\/faces\/5-image.jpg\"},{\"id\":6,\"email\":\"tracey.ramos@reqres.in\",\"first_name\":\"Tracey\",\"last_name\":\"Ramos\",\"avatar\":\"https:\/\/reqres.in\/img\/faces\/6-image.jpg\"}],\"support\":{\"url\":\"https:\/\/reqres.in\/#support-heading\",\"text\":\"To keep ReqRes free, contributions towards server costs are appreciated!\"}}\n  {\"page\":1,\"per_page\":6,\"total\":12,\"total_pages\":2,\"data\":[{\"id\":7,\"email\":\"michael.lawson@reqres.in\",\"first_name\":\"Michael\",\"last_name\":\"Lawson\",\"avatar\":\"https:\/\/reqres.in\/img\/faces\/7-image.jpg\"},{\"id\":8,\"email\":\"lindsay.ferguson@reqres.in\",\"first_name\":\"Lindsay\",\"last_name\":\"Ferguson\",\"avatar\":\"https:\/\/reqres.in\/img\/faces\/8-image.jpg\"},{\"id\":9,\"email\":\"tobias.funke@reqres.in\",\"first_name\":\"Tobias\",\"last_name\":\"Funke\",\"avatar\":\"https:\/\/reqres.in\/img\/faces\/9-image.jpg\"},{\"id\":10,\"email\":\"byron.fields@reqres.in\",\"first_name\":\"Byron\",\"last_name\":\"Fields\",\"avatar\":\"https:\/\/reqres.in\/img\/faces\/10-image.jpg\"},{\"id\":11,\"email\":\"george.edwards@reqres.in\",\"first_name\":\"George\",\"last_name\":\"Edwards\",\"avatar\":\"https:\/\/reqres.in\/img\/faces\/11-image.jpg\"},{\"id\":12,\"email\":\"rachel.howell@reqres.in\",\"first_name\":\"Rachel\",\"last_name\":\"Howell\",\"avatar\":\"https:\/\/reqres.in\/img\/faces\/12-image.jpg\"}],\"support\":{\"url\":\"https:\/\/reqres.in\/#support-heading\",\"text\":\"To keep ReqRes free, contributions towards server costs are appreciated!\"}}\n\n    $.data | not equal | array match failed at index 0 (LIST:LIST)\n    [{\"id\":1,\"email\":\"george.bluth@reqres.in\",\"first_name\":\"George\",\"last_name\":\"Bluth\",\"avatar\":\"https:\/\/reqres.in\/img\/faces\/1-image.jpg\"},{\"id\":2,\"email\":\"janet.weaver@reqres.in\",\"first_name\":\"Janet\",\"last_name\":\"Weaver\",\"avatar\":\"https:\/\/reqres.in\/img\/faces\/2-image.jpg\"},{\"id\":3,\"email\":\"emma.wong@reqres.in\",\"first_name\":\"Emma\",\"last_name\":\"Wong\",\"avatar\":\"https:\/\/reqres.in\/img\/faces\/3-image.jpg\"},{\"id\":4,\"email\":\"eve.holt@reqres.in\",\"first_name\":\"Eve\",\"last_name\":\"Holt\",\"avatar\":\"https:\/\/reqres.in\/img\/faces\/4-image.jpg\"},{\"id\":5,\"email\":\"charles.morris@reqres.in\",\"first_name\":\"Charles\",\"last_name\":\"Morris\",\"avatar\":\"https:\/\/reqres.in\/img\/faces\/5-image.jpg\"},{\"id\":6,\"email\":\"tracey.ramos@reqres.in\",\"first_name\":\"Tracey\",\"last_name\":\"Ramos\",\"avatar\":\"https:\/\/reqres.in\/img\/faces\/6-image.jpg\"}]\n    [{\"id\":7,\"email\":\"michael.lawson@reqres.in\",\"first_name\":\"Michael\",\"last_name\":\"Lawson\",\"avatar\":\"https:\/\/reqres.in\/img\/faces\/7-image.jpg\"},{\"id\":8,\"email\":\"lindsay.ferguson@reqres.in\",\"first_name\":\"Lindsay\",\"last_name\":\"Ferguson\",\"avatar\":\"https:\/\/reqres.in\/img\/faces\/8-image.jpg\"},{\"id\":9,\"email\":\"tobias.funke@reqres.in\",\"first_name\":\"Tobias\",\"last_name\":\"Funke\",\"avatar\":\"https:\/\/reqres.in\/img\/faces\/9-image.jpg\"},{\"id\":10,\"email\":\"byron.fields@reqres.in\",\"first_name\":\"Byron\",\"last_name\":\"Fields\",\"avatar\":\"https:\/\/reqres.in\/img\/faces\/10-image.jpg\"},{\"id\":11,\"email\":\"george.edwards@reqres.in\",\"first_name\":\"George\",\"last_name\":\"Edwards\",\"avatar\":\"https:\/\/reqres.in\/img\/faces\/11-image.jpg\"},{\"id\":12,\"email\":\"rachel.howell@reqres.in\",\"first_name\":\"Rachel\",\"last_name\":\"Howell\",\"avatar\":\"https:\/\/reqres.in\/img\/faces\/12-image.jpg\"}]\n\n      $.data[0] | not equal | match failed for name: 'id' (MAP:MAP)\n      {\"id\":1,\"email\":\"george.bluth@reqres.in\",\"first_name\":\"George\",\"last_name\":\"Bluth\",\"avatar\":\"https:\/\/reqres.in\/img\/faces\/1-image.jpg\"}\n      {\"id\":7,\"email\":\"michael.lawson@reqres.in\",\"first_name\":\"Michael\",\"last_name\":\"Lawson\",\"avatar\":\"https:\/\/reqres.in\/img\/faces\/7-image.jpg\"}\n\n        $.data[0].id | not equal (NUMBER:NUMBER)\n        1\n        7\n\nsrc\/main\/java\/users\/get\/users-get.feature:11","executorName":"main","name":"Get a list of users","startTime":1652459711853,"refId":"[2:7]","endTime":1652459713101,"exampleIndex":-1}],"callDepth":0,"name":"Get users on regres","description":"","resultDate":"2022-05-13 11:35:13 AM","durationMillis":1237.2407,"passedCount":0}